module richiejp.com/portfolio

go 1.23.2

require github.com/valyala/fasthttp v1.57.0

require (
	github.com/andybalholm/brotli v1.1.1 // indirect
	github.com/klauspost/compress v1.17.11 // indirect
	github.com/valyala/bytebufferpool v1.0.0 // indirect
)
