<?xml version="1.0" encoding="UTF-8" standalone="no"?>
<svg
   version="1.1"
   id="Layer_1"
   x="0px"
   y="0px"
   viewBox="0 0 213.5 187.42"
   xml:space="preserve"
   width="213.5"
   height="187.42"
   xmlns="http://www.w3.org/2000/svg"
   xmlns:svg="http://www.w3.org/2000/svg"><defs
   id="defs4714" />
<g
   id="g4709"
   transform="translate(-533.25,-418.3)"
   style="display:inline">
  <path
   d="m 746.21,418.3 h -26.26 -186.7 v 24.32 h 14 V 432.29 H 732.74 V 591.7 h -28.76 l -52.64,-61.07 c 9.1,-1.94 16.28,-6.12 21.53,-12.51 0.4,-0.48 0.78,-0.98 1.13,-1.47 2.34,-3.15 4.05,-6.65 5.16,-10.5 1.06,-3.61 1.6,-7.54 1.6,-11.76 0,-11.28 -3.69,-20.35 -11.05,-27.24 -7.37,-6.87 -17.12,-10.33 -29.25,-10.33 H 533.25 v 148.9 H 673.8 l -10.83,-14 H 547.26 V 474.24 l 93.02,0.11 c 6.72,0 12,1.8 15.85,5.37 3.86,3.59 5.8,8.45 5.8,14.64 0,6.28 -1.94,11.2 -5.8,14.71 -3.84,3.53 -9.13,5.29 -15.85,5.29 h -34.3 v -25.38 h -18.86 v 81.65 h 19.03 v -38.86 h 23.07 l 52.77,61.34 10.83,12.59 h 53.93 V 418.3 Z"
   id="path4707"
   style="fill:#000000;fill-opacity:1" />
</g>
</svg>
